{
  "iisSettings": {
    "windowsAuthentication": false,
    "anonymousAuthentication": true,
    "iisExpress": {
      "applicationUrl": "http://localhost:52453",
      "sslPort": 44362
    }
  },
  "profiles": {
    "CertiChain.Frontend": {
      "commandName": "Project",
      "dotnetRunMessages": true,
      "launchBrowser": true,
      "inspectUri": "{wsProtocol}://{url.hostname}:{url.port}/_framework/debug/ws-proxy?browser={browserInspectUri}",
      "applicationUrl": "https://localhost:7239;http://localhost:5239",
      "environmentVariables": {
        "ASPNETCORE_ENVIRONMENT": "Development",
        "ASPNETCORE_Kestrel__Certificates__Default__Path": "/home/kuba/sslcert/certichain.duckdns.org/certichain.duckdns.org.pfx",
        "ASPNETCORE_Kestrel__Certificates__Default__Password": "111111"
      }
    },
    "IIS Express": {
      "commandName": "IISExpress",
      "launchBrowser": true,
      "inspectUri": "{wsProtocol}://{url.hostname}:{url.port}/_framework/debug/ws-proxy?browser={browserInspectUri}",
      "environmentVariables": {
        "ASPNETCORE_ENVIRONMENT": "Development"
      }
    }
  },
  "Kestrel": {
    "Certificates": {
      "Default": {
        "Path": "/home/kuba/sslcert/certichain.duckdns.org/certichain.duckdns.org.pfx",
        "Password": "111111"
      }
    }
  }
}
